...
----------------------------------------------------------------------
Ran 3 tests in 0.000s

OK
Name               Stmts   Miss Branch BrPart  Cover   Missing
--------------------------------------------------------------
Diplomacy.py          71     13     60      9    77%   6->7, 7, 20->35, 25->26, 26-30, 31->12, 35, 40->44, 44-48, 63->64, 64-65, 72->71, 79->80, 80-81, 85->91
TestDiplomacy.py      21      0      0      0   100%
--------------------------------------------------------------
TOTAL                 92     13     60      9    80%
