............
----------------------------------------------------------------------
Ran 12 tests in 0.002s

OK
Name               Stmts   Miss Branch BrPart  Cover   Missing
--------------------------------------------------------------
Diplomacy.py          80      1     54      2    98%   92->84, 158->159, 159
TestDiplomacy.py     128      0      0      0   100%
--------------------------------------------------------------
TOTAL                208      1     54      2    99%
